[gd_scene load_steps=5 format=1]

[ext_resource path="res://Scripts/NumberSelector.gd" type="Script" id=1]
[ext_resource path="res://Assets/arrow_left.png" type="Texture" id=2]
[ext_resource path="res://Assets/arrow_right.png" type="Texture" id=3]
[ext_resource path="res://Assets/exo2.fnt" type="BitmapFont" id=4]

[node name="NumberSelector" type="Node2D"]

script/script = ExtResource( 1 )

[node name="left" type="TextureButton" parent="."]

focus/ignore_mouse = false
focus/stop_mouse = true
size_flags/horizontal = 2
size_flags/vertical = 2
margin/left = -52.0
margin/top = -19.0
margin/right = -4.0
margin/bottom = 21.0
toggle_mode = false
enabled_focus_mode = 2
shortcut = null
textures/normal = ExtResource( 2 )
params/resize_mode = 1
params/stretch_mode = 0

[node name="right" type="TextureButton" parent="."]

focus/ignore_mouse = false
focus/stop_mouse = true
size_flags/horizontal = 2
size_flags/vertical = 2
margin/left = 8.0
margin/top = -19.0
margin/right = 48.0
margin/bottom = 21.0
toggle_mode = false
enabled_focus_mode = 2
shortcut = null
textures/normal = ExtResource( 3 )
params/resize_mode = 1
params/stretch_mode = 0

[node name="number" type="Label" parent="."]

anchor/right = 1
anchor/bottom = 1
focus/ignore_mouse = true
focus/stop_mouse = true
size_flags/horizontal = 2
size_flags/vertical = 0
margin/left = -30.0
margin/top = -19.0
margin/right = 34.0
margin/bottom = 43.0
custom_fonts/font = ExtResource( 4 )
custom_colors/font_color = Color( 0, 0, 0, 1 )
text = "7"
align = 1
valign = 1
percent_visible = 1.0
lines_skipped = 0
max_lines_visible = -1

[node name="Node2D" type="Node2D" parent="."]

transform/pos = Vector2( 80, 60 )

[connection signal="pressed" from="left" to="." method="_on_left_pressed"]

[connection signal="pressed" from="right" to="." method="_on_right_pressed"]


